[
 {
  "count": 313,
  "hashtag": "trump2016",
  "ranking": 1
 },
 {
  "count": 219,
  "hashtag": "makeamericagreatagain",
  "ranking": 2
 },
 {
  "count": 63,
  "hashtag": "votetrump",
  "ranking": 3
 },
 {
  "count": 62,
  "hashtag": "americafirst",
  "ranking": 4
 },
 {
  "count": 60,
  "hashtag": "rncincle",
  "ranking": 5
 },
 {
  "count": 58,
  "hashtag": "maga",
  "ranking": 6
 },
 {
  "count": 53,
  "hashtag": "demsinphilly",
  "ranking": 7
 },
 {
  "count": 52,
  "hashtag": "debatenight",
  "ranking": 8
 },
 {
  "count": 51,
  "hashtag": "imwithyou",
  "ranking": 9
 },
 {
  "count": 32,
  "hashtag": "trumptrain",
  "ranking": 10
 },
 {
  "count": 24,
  "hashtag": "fitn",
  "ranking": 11
 },
 {
  "count": 23,
  "hashtag": "trumppence16",
  "ranking": 12
 },
 {
  "count": 21,
  "hashtag": "gopdebate",
  "ranking": 13
 },
 {
  "count": 19,
  "hashtag": "imwithher",
  "ranking": 14
 },
 {
  "count": 18,
  "hashtag": "supertuesday",
  "ranking": 15
 },
 {
  "count": 15,
  "hashtag": "iacaucus",
  "ranking": 16
 },
 {
  "count": 14,
  "hashtag": "debates2016",
  "ranking": 17
 },
 {
  "count": 14,
  "hashtag": "demconvention",
  "ranking": 17
 },
 {
  "count": 14,
  "hashtag": "crookedhillary",
  "ranking": 17
 },
 {
  "count": 13,
  "hashtag": "wiprimary",
  "ranking": 20
 },
 {
  "count": 12,
  "hashtag": "nbcnewsforum",
  "ranking": 21
 },
 {
  "count": 11,
  "hashtag": "tbt",
  "ranking": 22
 },
 {
  "count": 11,
  "hashtag": "trump",
  "ranking": 22
 },
 {
  "count": 10,
  "hashtag": "inprimary",
  "ranking": 24
 },
 {
  "count": 9,
  "hashtag": "votetrumpsc",
  "ranking": 25
 },
 {
  "count": 9,
  "hashtag": "nyprimary",
  "ranking": 25
 },
 {
  "count": 8,
  "hashtag": "nobillnobreak",
  "ranking": 27
 },
 {
  "count": 8,
  "hashtag": "caucusfortrump",
  "ranking": 27
 },
 {
  "count": 7,
  "hashtag": "strongertogether",
  "ranking": 29
 },
 {
  "count": 7,
  "hashtag": "scprimary",
  "ranking": 29
 },
 {
  "count": 7,
  "hashtag": "nationalvoterregistrationday",
  "ranking": 29
 },
 {
  "count": 7,
  "hashtag": "potus",
  "ranking": 29
 },
 {
  "count": 7,
  "hashtag": "womancard",
  "ranking": 29
 },
 {
  "count": 7,
  "hashtag": "votetrumpnh",
  "ranking": 29
 },
 {
  "count": 7,
  "hashtag": "obamacare",
  "ranking": 29
 },
 {
  "count": 7,
  "hashtag": "votetrumpnv",
  "ranking": 29
 },
 {
  "count": 6,
  "hashtag": "newyorkvalues",
  "ranking": 37
 },
 {
  "count": 6,
  "hashtag": "neverhillary",
  "ranking": 37
 },
 {
  "count": 6,
  "hashtag": "primaryday",
  "ranking": 37
 },
 {
  "count": 6,
  "hashtag": "nhprimary",
  "ranking": 37
 },
 {
  "count": 6,
  "hashtag": "lovetrumpshate",
  "ranking": 37
 },
 {
  "count": 5,
  "hashtag": "shewon",
  "ranking": 42
 },
 {
  "count": 5,
  "hashtag": "icymi",
  "ranking": 42
 },
 {
  "count": 5,
  "hashtag": "debate",
  "ranking": 42
 },
 {
  "count": 5,
  "hashtag": "lesm",
  "ranking": 42
 },
 {
  "count": 4,
  "hashtag": "trumpyourself",
  "ranking": 46
 },
 {
  "count": 4,
  "hashtag": "nevadacaucus",
  "ranking": 46
 },
 {
  "count": 4,
  "hashtag": "teamtrump",
  "ranking": 46
 },
 {
  "count": 4,
  "hashtag": "demsinphl",
  "ranking": 46
 },
 {
  "count": 4,
  "hashtag": "gopconvention",
  "ranking": 46
 },
 {
  "count": 4,
  "hashtag": "womensequalityday",
  "ranking": 46
 },
 {
  "count": 4,
  "hashtag": "scotus",
  "ranking": 46
 },
 {
  "count": 4,
  "hashtag": "brexitvote",
  "ranking": 46
 },
 {
  "count": 4,
  "hashtag": "demplatform",
  "ranking": 46
 },
 {
  "count": 3,
  "hashtag": "2a",
  "ranking": 55
 },
 {
  "count": 3,
  "hashtag": "stopgunviolence",
  "ranking": 55
 },
 {
  "count": 3,
  "hashtag": "foxnews",
  "ranking": 55
 },
 {
  "count": 3,
  "hashtag": "hannity",
  "ranking": 55
 },
 {
  "count": 3,
  "hashtag": "wisconsin",
  "ranking": 55
 },
 {
  "count": 3,
  "hashtag": "makeamericasafeagain",
  "ranking": 55
 },
 {
  "count": 3,
  "hashtag": "fightforfamilies",
  "ranking": 55
 },
 {
  "count": 3,
  "hashtag": "disarmhate",
  "ranking": 55
 },
 {
  "count": 3,
  "hashtag": "nevertrump",
  "ranking": 55
 },
 {
  "count": 3,
  "hashtag": "azprimary",
  "ranking": 55
 },
 {
  "count": 3,
  "hashtag": "votetrumpny",
  "ranking": 55
 },
 {
  "count": 3,
  "hashtag": "wemadehistory",
  "ranking": 55
 },
 {
  "count": 2,
  "hashtag": "dday",
  "ranking": 67
 },
 {
  "count": 2,
  "hashtag": "wakeupamerica",
  "ranking": 67
 },
 {
  "count": 2,
  "hashtag": "laborday",
  "ranking": 67
 },
 {
  "count": 2,
  "hashtag": "supersaturday",
  "ranking": 67
 },
 {
  "count": 2,
  "hashtag": "riprimary",
  "ranking": 67
 },
 {
  "count": 2,
  "hashtag": "rollcallvote",
  "ranking": 67
 },
 {
  "count": 2,
  "hashtag": "orlandounited",
  "ranking": 67
 },
 {
  "count": 2,
  "hashtag": "sitin",
  "ranking": 67
 },
 {
  "count": 2,
  "hashtag": "lawandorder",
  "ranking": 67
 },
 {
  "count": 2,
  "hashtag": "clintonkaine",
  "ranking": 67
 },
 {
  "count": 2,
  "hashtag": "citizensunited",
  "ranking": 67
 },
 {
  "count": 2,
  "hashtag": "goodtrouble",
  "ranking": 67
 },
 {
  "count": 2,
  "hashtag": "arizonaprimary",
  "ranking": 67
 },
 {
  "count": 2,
  "hashtag": "tedcruz",
  "ranking": 67
 },
 {
  "count": 2,
  "hashtag": "sotu",
  "ranking": 67
 },
 {
  "count": 2,
  "hashtag": "brexit",
  "ranking": 67
 },
 {
  "count": 2,
  "hashtag": "estoyconella",
  "ranking": 67
 },
 {
  "count": 2,
  "hashtag": "virwinia",
  "ranking": 67
 },
 {
  "count": 2,
  "hashtag": "lgbt",
  "ranking": 67
 },
 {
  "count": 2,
  "hashtag": "polls",
  "ranking": 67
 },
 {
  "count": 2,
  "hashtag": "votetrumpmi",
  "ranking": 67
 },
 {
  "count": 2,
  "hashtag": "lyingted",
  "ranking": 67
 },
 {
  "count": 2,
  "hashtag": "gunviolence",
  "ranking": 67
 },
 {
  "count": 2,
  "hashtag": "utcaucus",
  "ranking": 67
 },
 {
  "count": 2,
  "hashtag": "nato",
  "ranking": 67
 },
 {
  "count": 2,
  "hashtag": "enough",
  "ranking": 67
 },
 {
  "count": 2,
  "hashtag": "actonclimate",
  "ranking": 67
 },
 {
  "count": 2,
  "hashtag": "laurencetribe",
  "ranking": 67
 },
 {
  "count": 2,
  "hashtag": "msnbctownhall",
  "ranking": 67
 },
 {
  "count": 2,
  "hashtag": "utah",
  "ranking": 67
 },
 {
  "count": 2,
  "hashtag": "iowacaucus",
  "ranking": 67
 },
 {
  "count": 2,
  "hashtag": "creatorsaskhrc",
  "ranking": 67
 },
 {
  "count": 2,
  "hashtag": "gop",
  "ranking": 67
 },
 {
  "count": 2,
  "hashtag": "votetrump2016",
  "ranking": 67
 },
 {
  "count": 2,
  "hashtag": "utahcaucus",
  "ranking": 67
 },
 {
  "count": 2,
  "hashtag": "restorethevra",
  "ranking": 67
 },
 {
  "count": 2,
  "hashtag": "marybrigidmcmanamon",
  "ranking": 67
 },
 {
  "count": 2,
  "hashtag": "lssc",
  "ranking": 67
 },
 {
  "count": 2,
  "hashtag": "trumppence2016",
  "ranking": 67
 },
 {
  "count": 2,
  "hashtag": "alwaystrump",
  "ranking": 67
 },
 {
  "count": 2,
  "hashtag": "caprimary",
  "ranking": 67
 },
 {
  "count": 2,
  "hashtag": "nps100",
  "ranking": 67
 },
 {
  "count": 2,
  "hashtag": "smallbiz",
  "ranking": 67
 },
 {
  "count": 2,
  "hashtag": "nomoresilence",
  "ranking": 67
 },
 {
  "count": 2,
  "hashtag": "nhpolitics",
  "ranking": 67
 },
 {
  "count": 2,
  "hashtag": "paprimary",
  "ranking": 67
 },
 {
  "count": 2,
  "hashtag": "stopthehate",
  "ranking": 67
 },
 {
  "count": 2,
  "hashtag": "trumpwon",
  "ranking": 67
 },
 {
  "count": 1,
  "hashtag": "jimmyfallon",
  "ranking": 115
 },
 {
  "count": 1,
  "hashtag": "juangabriel",
  "ranking": 115
 },
 {
  "count": 1,
  "hashtag": "enjoy",
  "ranking": 115
 },
 {
  "count": 1,
  "hashtag": "nabjnahj16",
  "ranking": 115
 },
 {
  "count": 1,
  "hashtag": "usmc2016",
  "ranking": 115
 },
 {
  "count": 1,
  "hashtag": "carrier",
  "ranking": 115
 },
 {
  "count": 1,
  "hashtag": "stanleycup",
  "ranking": 115
 },
 {
  "count": 1,
  "hashtag": "wh",
  "ranking": 115
 },
 {
  "count": 1,
  "hashtag": "johnryder",
  "ranking": 115
 },
 {
  "count": 1,
  "hashtag": "stopcommoncore",
  "ranking": 115
 },
 {
  "count": 1,
  "hashtag": "whereshillary",
  "ranking": 115
 },
 {
  "count": 1,
  "hashtag": "orlando",
  "ranking": 115
 },
 {
  "count": 1,
  "hashtag": "newday",
  "ranking": 115
 },
 {
  "count": 1,
  "hashtag": "ohhillyes",
  "ranking": 115
 },
 {
  "count": 1,
  "hashtag": "jobs",
  "ranking": 115
 },
 {
  "count": 1,
  "hashtag": "benghazi",
  "ranking": 115
 },
 {
  "count": 1,
  "hashtag": "votetrumpil",
  "ranking": 115
 },
 {
  "count": 1,
  "hashtag": "cruz",
  "ranking": 115
 },
 {
  "count": 1,
  "hashtag": "orprimary",
  "ranking": 115
 },
 {
  "count": 1,
  "hashtag": "kentuckyderby",
  "ranking": 115
 },
 {
  "count": 1,
  "hashtag": "newyork",
  "ranking": 115
 },
 {
  "count": 1,
  "hashtag": "historymade",
  "ranking": 115
 },
 {
  "count": 1,
  "hashtag": "statehood",
  "ranking": 115
 },
 {
  "count": 1,
  "hashtag": "hillaryoncnn",
  "ranking": 115
 },
 {
  "count": 1,
  "hashtag": "naturalborn",
  "ranking": 115
 },
 {
  "count": 1,
  "hashtag": "voterregistrationday",
  "ranking": 115
 },
 {
  "count": 1,
  "hashtag": "westerntuesday",
  "ranking": 115
 },
 {
  "count": 1,
  "hashtag": "worldrefugeeday",
  "ranking": 115
 },
 {
  "count": 1,
  "hashtag": "ut",
  "ranking": 115
 },
 {
  "count": 1,
  "hashtag": "iapolitics",
  "ranking": 115
 },
 {
  "count": 1,
  "hashtag": "mikepence",
  "ranking": 115
 },
 {
  "count": 1,
  "hashtag": "nycpride",
  "ranking": 115
 },
 {
  "count": 1,
  "hashtag": "1",
  "ranking": 115
 },
 {
  "count": 1,
  "hashtag": "trumpdallas",
  "ranking": 115
 },
 {
  "count": 1,
  "hashtag": "votetrumpvt",
  "ranking": 115
 },
 {
  "count": 1,
  "hashtag": "watch",
  "ranking": 115
 },
 {
  "count": 1,
  "hashtag": "rubio",
  "ranking": 115
 },
 {
  "count": 1,
  "hashtag": "defendthesecond",
  "ranking": 115
 },
 {
  "count": 1,
  "hashtag": "filibuster",
  "ranking": 115
 },
 {
  "count": 1,
  "hashtag": "aidsfreegeneration",
  "ranking": 115
 },
 {
  "count": 1,
  "hashtag": "irandeal",
  "ranking": 115
 },
 {
  "count": 1,
  "hashtag": "trumpwaikiki",
  "ranking": 115
 },
 {
  "count": 1,
  "hashtag": "srebrenica",
  "ranking": 115
 },
 {
  "count": 1,
  "hashtag": "frozen",
  "ranking": 115
 },
 {
  "count": 1,
  "hashtag": "juntossepuede",
  "ranking": 115
 },
 {
  "count": 1,
  "hashtag": "americansamoa",
  "ranking": 115
 },
 {
  "count": 1,
  "hashtag": "mothersofthemovement",
  "ranking": 115
 },
 {
  "count": 1,
  "hashtag": "lightweightsenatormarcorubio",
  "ranking": 115
 },
 {
  "count": 1,
  "hashtag": "gopincle",
  "ranking": 115
 },
 {
  "count": 1,
  "hashtag": "laudatosi",
  "ranking": 115
 },
 {
  "count": 1,
  "hashtag": "msprimary",
  "ranking": 115
 },
 {
  "count": 1,
  "hashtag": "hillaryongma",
  "ranking": 115
 },
 {
  "count": 1,
  "hashtag": "smallbizweek",
  "ranking": 115
 },
 {
  "count": 1,
  "hashtag": "meetthetrumps",
  "ranking": 115
 },
 {
  "count": 1,
  "hashtag": "mayday",
  "ranking": 115
 },
 {
  "count": 1,
  "hashtag": "kansascaucus",
  "ranking": 115
 },
 {
  "count": 1,
  "hashtag": "trump360",
  "ranking": 115
 },
 {
  "count": 1,
  "hashtag": "kenlangone",
  "ranking": 115
 },
 {
  "count": 1,
  "hashtag": "democraticsitin",
  "ranking": 115
 },
 {
  "count": 1,
  "hashtag": "fail",
  "ranking": 115
 },
 {
  "count": 1,
  "hashtag": "trump4vets",
  "ranking": 115
 },
 {
  "count": 1,
  "hashtag": "mothersday",
  "ranking": 115
 },
 {
  "count": 1,
  "hashtag": "commanderinchiefforum",
  "ranking": 115
 },
 {
  "count": 1,
  "hashtag": "aslongasittakes",
  "ranking": 115
 },
 {
  "count": 1,
  "hashtag": "turkey",
  "ranking": 115
 },
 {
  "count": 1,
  "hashtag": "unga",
  "ranking": 115
 },
 {
  "count": 1,
  "hashtag": "riggedsystem",
  "ranking": 115
 },
 {
  "count": 1,
  "hashtag": "sheswithus",
  "ranking": 115
 },
 {
  "count": 1,
  "hashtag": "repmikekelly",
  "ranking": 115
 },
 {
  "count": 1,
  "hashtag": "makeyoutubegreatagain",
  "ranking": 115
 },
 {
  "count": 1,
  "hashtag": "wibackher",
  "ranking": 115
 },
 {
  "count": 1,
  "hashtag": "trumpmovement",
  "ranking": 115
 },
 {
  "count": 1,
  "hashtag": "caribbean",
  "ranking": 115
 },
 {
  "count": 1,
  "hashtag": "bikersfortrump",
  "ranking": 115
 },
 {
  "count": 1,
  "hashtag": "rip",
  "ranking": 115
 },
 {
  "count": 1,
  "hashtag": "terencecrutcher",
  "ranking": 115
 },
 {
  "count": 1,
  "hashtag": "teamusa",
  "ranking": 115
 },
 {
  "count": 1,
  "hashtag": "donald",
  "ranking": 115
 },
 {
  "count": 1,
  "hashtag": "electionday",
  "ranking": 115
 },
 {
  "count": 1,
  "hashtag": "opioidawarenessweek",
  "ranking": 115
 },
 {
  "count": 1,
  "hashtag": "cincodemayo",
  "ranking": 115
 },
 {
  "count": 1,
  "hashtag": "iowa",
  "ranking": 115
 },
 {
  "count": 1,
  "hashtag": "nebraskaprimary",
  "ranking": 115
 },
 {
  "count": 1,
  "hashtag": "southcarolina",
  "ranking": 115
 },
 {
  "count": 1,
  "hashtag": "laurence",
  "ranking": 115
 },
 {
  "count": 1,
  "hashtag": "youthday",
  "ranking": 115
 },
 {
  "count": 1,
  "hashtag": "ford",
  "ranking": 115
 },
 {
  "count": 1,
  "hashtag": "election2016",
  "ranking": 115
 },
 {
  "count": 1,
  "hashtag": "standtogether",
  "ranking": 115
 },
 {
  "count": 1,
  "hashtag": "wearebernie",
  "ranking": 115
 },
 {
  "count": 1,
  "hashtag": "mdprimary",
  "ranking": 115
 },
 {
  "count": 1,
  "hashtag": "economy",
  "ranking": 115
 },
 {
  "count": 1,
  "hashtag": "hillarykaine2016",
  "ranking": 115
 },
 {
  "count": 1,
  "hashtag": "clinton",
  "ranking": 115
 },
 {
  "count": 1,
  "hashtag": "armybday",
  "ranking": 115
 },
 {
  "count": 1,
  "hashtag": "thetonightshow",
  "ranking": 115
 },
 {
  "count": 1,
  "hashtag": "neilcavuto",
  "ranking": 115
 },
 {
  "count": 1,
  "hashtag": "trumpnv",
  "ranking": 115
 },
 {
  "count": 1,
  "hashtag": "earthday",
  "ranking": 115
 },
 {
  "count": 1,
  "hashtag": "primary",
  "ranking": 115
 },
 {
  "count": 1,
  "hashtag": "trump4president",
  "ranking": 115
 },
 {
  "count": 1,
  "hashtag": "eauclaire",
  "ranking": 115
 },
 {
  "count": 1,
  "hashtag": "trumpiswithyou",
  "ranking": 115
 },
 {
  "count": 1,
  "hashtag": "turnuptovote",
  "ranking": 115
 },
 {
  "count": 1,
  "hashtag": "wimbledon",
  "ranking": 115
 },
 {
  "count": 1,
  "hashtag": "haileypuckett",
  "ranking": 115
 },
 {
  "count": 1,
  "hashtag": "women4ttump",
  "ranking": 115
 },
 {
  "count": 1,
  "hashtag": "derp",
  "ranking": 115
 },
 {
  "count": 1,
  "hashtag": "netneutrality",
  "ranking": 115
 },
 {
  "count": 1,
  "hashtag": "nvcaucus",
  "ranking": 115
 },
 {
  "count": 1,
  "hashtag": "hispanicheritagemonth",
  "ranking": 115
 },
 {
  "count": 1,
  "hashtag": "madeinamerica",
  "ranking": 115
 },
 {
  "count": 1,
  "hashtag": "endcommoncore",
  "ranking": 115
 },
 {
  "count": 1,
  "hashtag": "indprimary",
  "ranking": 115
 },
 {
  "count": 1,
  "hashtag": "leadright2016",
  "ranking": 115
 },
 {
  "count": 1,
  "hashtag": "charleston9",
  "ranking": 115
 },
 {
  "count": 1,
  "hashtag": "mormon",
  "ranking": 115
 },
 {
  "count": 1,
  "hashtag": "ted",
  "ranking": 115
 },
 {
  "count": 1,
  "hashtag": "goldenglobe",
  "ranking": 115
 },
 {
  "count": 1,
  "hashtag": "fox",
  "ranking": 115
 },
 {
  "count": 1,
  "hashtag": "coastguardday",
  "ranking": 115
 },
 {
  "count": 1,
  "hashtag": "alconvention2016",
  "ranking": 115
 },
 {
  "count": 1,
  "hashtag": "philandocastile",
  "ranking": 115
 },
 {
  "count": 1,
  "hashtag": "holdthefloor",
  "ranking": 115
 },
 {
  "count": 1,
  "hashtag": "internationalnursesday",
  "ranking": 115
 },
 {
  "count": 1,
  "hashtag": "makersandtakers",
  "ranking": 115
 },
 {
  "count": 1,
  "hashtag": "votersspeak",
  "ranking": 115
 },
 {
  "count": 1,
  "hashtag": "whcd",
  "ranking": 115
 },
 {
  "count": 1,
  "hashtag": "naacp107",
  "ranking": 115
 },
 {
  "count": 1,
  "hashtag": "commonlaw",
  "ranking": 115
 },
 {
  "count": 1,
  "hashtag": "imwithhernandez",
  "ranking": 115
 },
 {
  "count": 1,
  "hashtag": "wausau",
  "ranking": 115
 },
 {
  "count": 1,
  "hashtag": "mediafraud",
  "ranking": 115
 },
 {
  "count": 1,
  "hashtag": "blacksfortrump",
  "ranking": 115
 },
 {
  "count": 1,
  "hashtag": "davidcameron",
  "ranking": 115
 },
 {
  "count": 1,
  "hashtag": "michaelmoore",
  "ranking": 115
 },
 {
  "count": 1,
  "hashtag": "westvirginia",
  "ranking": 115
 },
 {
  "count": 1,
  "hashtag": "trumpforpresident",
  "ranking": 115
 },
 {
  "count": 1,
  "hashtag": "superbowlsunday",
  "ranking": 115
 },
 {
  "count": 1,
  "hashtag": "rio2016",
  "ranking": 115
 },
 {
  "count": 1,
  "hashtag": "olmstead",
  "ranking": 115
 },
 {
  "count": 1,
  "hashtag": "madeforhistory",
  "ranking": 115
 },
 {
  "count": 1,
  "hashtag": "az",
  "ranking": 115
 },
 {
  "count": 1,
  "hashtag": "gplfers",
  "ranking": 115
 },
 {
  "count": 1,
  "hashtag": "uaw",
  "ranking": 115
 },
 {
  "count": 1,
  "hashtag": "pulse",
  "ranking": 115
 },
 {
  "count": 1,
  "hashtag": "noloyalty",
  "ranking": 115
 },
 {
  "count": 1,
  "hashtag": "hillaryclinton",
  "ranking": 115
 },
 {
  "count": 1,
  "hashtag": "with_cruz_you_lose",
  "ranking": 115
 },
 {
  "count": 1,
  "hashtag": "blackwomensequalpay",
  "ranking": 115
 },
 {
  "count": 1,
  "hashtag": "usa",
  "ranking": 115
 },
 {
  "count": 1,
  "hashtag": "ivoted",
  "ranking": 115
 },
 {
  "count": 1,
  "hashtag": "rnc",
  "ranking": 115
 },
 {
  "count": 1,
  "hashtag": "newhampshire",
  "ranking": 115
 },
 {
  "count": 1,
  "hashtag": "isis",
  "ranking": 115
 },
 {
  "count": 1,
  "hashtag": "brussels",
  "ranking": 115
 },
 {
  "count": 1,
  "hashtag": "trumplv",
  "ranking": 115
 },
 {
  "count": 1,
  "hashtag": "sb50",
  "ranking": 115
 },
 {
  "count": 1,
  "hashtag": "elkhart",
  "ranking": 115
 },
 {
  "count": 1,
  "hashtag": "harveypitt",
  "ranking": 115
 },
 {
  "count": 1,
  "hashtag": "firstinpotus",
  "ranking": 115
 },
 {
  "count": 1,
  "hashtag": "washingtondc",
  "ranking": 115
 },
 {
  "count": 1,
  "hashtag": "wetrumphate",
  "ranking": 115
 },
 {
  "count": 1,
  "hashtag": "work",
  "ranking": 115
 },
 {
  "count": 1,
  "hashtag": "myteacherisweird",
  "ranking": 115
 },
 {
  "count": 1,
  "hashtag": "ctprimary",
  "ranking": 115
 },
 {
  "count": 1,
  "hashtag": "slipping",
  "ranking": 115
 },
 {
  "count": 1,
  "hashtag": "women4trump",
  "ranking": 115
 },
 {
  "count": 1,
  "hashtag": "declareyourambition",
  "ranking": 115
 },
 {
  "count": 1,
  "hashtag": "cnn",
  "ranking": 115
 },
 {
  "count": 1,
  "hashtag": "thedonald",
  "ranking": 115
 },
 {
  "count": 1,
  "hashtag": "jenniferrubin",
  "ranking": 115
 },
 {
  "count": 1,
  "hashtag": "feelthebern",
  "ranking": 115
 },
 {
  "count": 1,
  "hashtag": "moreincommon",
  "ranking": 115
 },
 {
  "count": 1,
  "hashtag": "thankavet",
  "ranking": 115
 },
 {
  "count": 1,
  "hashtag": "divodejuarez",
  "ranking": 115
 },
 {
  "count": 1,
  "hashtag": "maitnerstrong",
  "ranking": 115
 },
 {
  "count": 1,
  "hashtag": "wattersworld",
  "ranking": 115
 },
 {
  "count": 1,
  "hashtag": "notonemore",
  "ranking": 115
 },
 {
  "count": 1,
  "hashtag": "diwali",
  "ranking": 115
 },
 {
  "count": 1,
  "hashtag": "standwithlouisiana",
  "ranking": 115
 },
 {
  "count": 1,
  "hashtag": "memorialday",
  "ranking": 115
 },
 {
  "count": 1,
  "hashtag": "go",
  "ranking": 115
 },
 {
  "count": 1,
  "hashtag": "khizrkhan",
  "ranking": 115
 },
 {
  "count": 1,
  "hashtag": "racine",
  "ranking": 115
 },
 {
  "count": 1,
  "hashtag": "hrc4pa",
  "ranking": 115
 },
 {
  "count": 1,
  "hashtag": "hillary2016",
  "ranking": 115
 },
 {
  "count": 1,
  "hashtag": "ugpride2016",
  "ranking": 115
 },
 {
  "count": 1,
  "hashtag": "trumpsupporters",
  "ranking": 115
 },
 {
  "count": 1,
  "hashtag": "rncwithbernie",
  "ranking": 115
 },
 {
  "count": 1,
  "hashtag": "teachers4trump",
  "ranking": 115
 },
 {
  "count": 1,
  "hashtag": "dnc",
  "ranking": 115
 },
 {
  "count": 1,
  "hashtag": "upupup",
  "ranking": 115
 },
 {
  "count": 1,
  "hashtag": "wcs16",
  "ranking": 115
 },
 {
  "count": 1,
  "hashtag": "decision2016",
  "ranking": 115
 },
 {
  "count": 1,
  "hashtag": "trumpdog",
  "ranking": 115
 },
 {
  "count": 1,
  "hashtag": "vaticanwalls",
  "ranking": 115
 },
 {
  "count": 1,
  "hashtag": "daca",
  "ranking": 115
 },
 {
  "count": 1,
  "hashtag": "extremevetting",
  "ranking": 115
 },
 {
  "count": 1,
  "hashtag": "aipac2016",
  "ranking": 115
 },
 {
  "count": 1,
  "hashtag": "gibill",
  "ranking": 115
 },
 {
  "count": 1,
  "hashtag": "openingceremony",
  "ranking": 115
 },
 {
  "count": 1,
  "hashtag": "nascar",
  "ranking": 115
 },
 {
  "count": 1,
  "hashtag": "understandslavery",
  "ranking": 115
 },
 {
  "count": 1,
  "hashtag": "cripthevote",
  "ranking": 115
 },
 {
  "count": 1,
  "hashtag": "votetrumpwi",
  "ranking": 115
 },
 {
  "count": 1,
  "hashtag": "littlemarco",
  "ranking": 115
 },
 {
  "count": 1,
  "hashtag": "mdw",
  "ranking": 115
 },
 {
  "count": 1,
  "hashtag": "ca4trump",
  "ranking": 115
 },
 {
  "count": 1,
  "hashtag": "laflood",
  "ranking": 115
 },
 {
  "count": 1,
  "hashtag": "excellent",
  "ranking": 115
 },
 {
  "count": 1,
  "hashtag": "armedforcesday",
  "ranking": 115
 },
 {
  "count": 1,
  "hashtag": "changeagents",
  "ranking": 115
 },
 {
  "count": 1,
  "hashtag": "saveelephants",
  "ranking": 115
 },
 {
  "count": 1,
  "hashtag": "wewanttrump",
  "ranking": 115
 },
 {
  "count": 1,
  "hashtag": "librarianofcongress",
  "ranking": 115
 },
 {
  "count": 1,
  "hashtag": "secondamendment",
  "ranking": 115
 },
 {
  "count": 1,
  "hashtag": "greta",
  "ranking": 115
 },
 {
  "count": 1,
  "hashtag": "fallontonight",
  "ranking": 115
 },
 {
  "count": 1,
  "hashtag": "whd",
  "ranking": 115
 },
 {
  "count": 1,
  "hashtag": "2016",
  "ranking": 115
 },
 {
  "count": 1,
  "hashtag": "teacherappreciationday",
  "ranking": 115
 },
 {
  "count": 1,
  "hashtag": "60minutes",
  "ranking": 115
 },
 {
  "count": 1,
  "hashtag": "thanksobama",
  "ranking": 115
 },
 {
  "count": 1,
  "hashtag": "utah4trump",
  "ranking": 115
 },
 {
  "count": 1,
  "hashtag": "lonestarstate",
  "ranking": 115
 },
 {
  "count": 1,
  "hashtag": "fixdemocracyfirst",
  "ranking": 115
 },
 {
  "count": 1,
  "hashtag": "utahprimary",
  "ranking": 115
 },
 {
  "count": 1,
  "hashtag": "jonas",
  "ranking": 115
 },
 {
  "count": 1,
  "hashtag": "mahalo",
  "ranking": 115
 },
 {
  "count": 1,
  "hashtag": "prince",
  "ranking": 115
 },
 {
  "count": 1,
  "hashtag": "cbnnews",
  "ranking": 115
 },
 {
  "count": 1,
  "hashtag": "commoncore",
  "ranking": 115
 },
 {
  "count": 1,
  "hashtag": "presidenttrump",
  "ranking": 115
 },
 {
  "count": 1,
  "hashtag": "msm",
  "ranking": 115
 },
 {
  "count": 1,
  "hashtag": "nevercruz",
  "ranking": 115
 },
 {
  "count": 1,
  "hashtag": "colbert",
  "ranking": 115
 },
 {
  "count": 1,
  "hashtag": "ontherecord",
  "ranking": 115
 },
 {
  "count": 1,
  "hashtag": "neverdems",
  "ranking": 115
 },
 {
  "count": 1,
  "hashtag": "cruzfraud",
  "ranking": 115
 },
 {
  "count": 1,
  "hashtag": "southcarolinaprimary",
  "ranking": 115
 },
 {
  "count": 1,
  "hashtag": "rtm2016",
  "ranking": 115
 },
 {
  "count": 1,
  "hashtag": "blackmenforbernie",
  "ranking": 115
 },
 {
  "count": 1,
  "hashtag": "tpp",
  "ranking": 115
 },
 {
  "count": 1,
  "hashtag": "trumpcountry",
  "ranking": 115
 },
 {
  "count": 1,
  "hashtag": "flashbackfriday",
  "ranking": 115
 },
 {
  "count": 1,
  "hashtag": "rosanelleaton",
  "ranking": 115
 },
 {
  "count": 1,
  "hashtag": "rogerailes",
  "ranking": 115
 },
 {
  "count": 1,
  "hashtag": "endgunviolence",
  "ranking": 115
 },
 {
  "count": 1,
  "hashtag": "dtmag",
  "ranking": 115
 },
 {
  "count": 1,
  "hashtag": "voterfraud",
  "ranking": 115
 },
 {
  "count": 1,
  "hashtag": "dncinphl",
  "ranking": 115
 },
 {
  "count": 1,
  "hashtag": "sallyrideday",
  "ranking": 115
 },
 {
  "count": 1,
  "hashtag": "media",
  "ranking": 115
 },
 {
  "count": 1,
  "hashtag": "titleix",
  "ranking": 115
 },
 {
  "count": 1,
  "hashtag": "michaelbrown",
  "ranking": 115
 },
 {
  "count": 1,
  "hashtag": "eastvillage",
  "ranking": 115
 },
 {
  "count": 1,
  "hashtag": "fairandbalancedmyass",
  "ranking": 115
 },
 {
  "count": 1,
  "hashtag": "neverforget",
  "ranking": 115
 },
 {
  "count": 1,
  "hashtag": "mattschlapp",
  "ranking": 115
 },
 {
  "count": 1,
  "hashtag": "purpleheartday",
  "ranking": 115
 },
 {
  "count": 1,
  "hashtag": "taxplan",
  "ranking": 115
 },
 {
  "count": 1,
  "hashtag": "trumpineverett",
  "ranking": 115
 },
 {
  "count": 1,
  "hashtag": "indiana",
  "ranking": 115
 },
 {
  "count": 1,
  "hashtag": "americagreatagain",
  "ranking": 115
 },
 {
  "count": 1,
  "hashtag": "fns",
  "ranking": 115
 },
 {
  "count": 1,
  "hashtag": "iregistered",
  "ranking": 115
 },
 {
  "count": 1,
  "hashtag": "votetrumpma",
  "ranking": 115
 },
 {
  "count": 1,
  "hashtag": "yuge",
  "ranking": 115
 },
 {
  "count": 1,
  "hashtag": "ada",
  "ranking": 115
 },
 {
  "count": 1,
  "hashtag": "votetrumpnc",
  "ranking": 115
 },
 {
  "count": 1,
  "hashtag": "sayhername",
  "ranking": 115
 },
 {
  "count": 1,
  "hashtag": "deprimary",
  "ranking": 115
 },
 {
  "count": 1,
  "hashtag": "robotrubio",
  "ranking": 115
 },
 {
  "count": 1,
  "hashtag": "morningjoe",
  "ranking": 115
 },
 {
  "count": 1,
  "hashtag": "veterans",
  "ranking": 115
 },
 {
  "count": 1,
  "hashtag": "campaignfinance",
  "ranking": 115
 },
 {
  "count": 1,
  "hashtag": "megynkellypresents",
  "ranking": 115
 },
 {
  "count": 1,
  "hashtag": "mexico",
  "ranking": 115
 },
 {
  "count": 1,
  "hashtag": "buildthewall",
  "ranking": 115
 },
 {
  "count": 1,
  "hashtag": "apahm",
  "ranking": 115
 },
 {
  "count": 1,
  "hashtag": "houstonflood",
  "ranking": 115
 },
 {
  "count": 1,
  "hashtag": "arizona",
  "ranking": 115
 }
]